…
The help documentation of each dataset provides a short description of
each column and the source of the data. Additional information is
included in the packaged data dictionary.

``` r
readRDS(system.file("scorecard-data-dictionary.rds", package = "collegeScorecard"))
#> $info
#> # A tibble: 3,305 × 11
#>    name_of_data_element        dev_category developer_friendly_n…¹ api_data_type
#>    <chr>                       <chr>        <chr>                  <chr>        
#>  1 Unit ID for institution     root         id                     integer      
#>  2 8-digit OPE ID for institu… root         ope8_id                string       
#>  3 6-digit OPE ID for institu… root         ope6_id                string       
#>  4 Institution name            school       name                   autocomplete 
#>  5 City                        school       city                   autocomplete 
#>  6 State postcode              school       state                  string       
#>  7 ZIP code                    school       zip                    string       
#>  8 Accreditor for institution  school       accreditor             string       
#>  9 URL for institution's home… school       school_url             string       
#> 10 URL for institution's net … school       price_calculator_url   string       
#> # ℹ 3,295 more rows
#> # ℹ abbreviated name: ¹​developer_friendly_name
#> # ℹ 7 more variables: data_type <chr>, index <chr>, variable_name <chr>,
#> #   source <chr>, shown_use_on_site <chr>, notes <chr>, has_labels <lgl>
#> 
#> $labels
#> # A tibble: 293 × 4
#>    variable_name value label                                     notes
#>    <chr>         <chr> <chr>                                     <chr>
#>  1 MAIN          0     Not main campus                           <NA> 
#>  2 MAIN          1     Main campus                               <NA> 
#>  3 PREDDEG       0     Not classified                            <NA> 
#>  4 PREDDEG       1     Predominantly certificate-degree granting <NA> 
#>  5 PREDDEG       2     Predominantly associate's-degree granting <NA> 
#>  6 PREDDEG       3     Predominantly bachelor's-degree granting  <NA> 
#>  7 PREDDEG       4     Entirely graduate-degree granting         <NA> 
#>  8 HIGHDEG       0     Non-degree-granting                       <NA> 
#>  9 HIGHDEG       1     Certificate degree                        <NA> 
#> 10 HIGHDEG       2     Associate degree                          <NA> 
#> # ℹ 283 more rows
```
